A:\projets\Public\oson\src\main\java\fr\lyneteam\nico\oson\JsonIOException.java
A:\projets\Public\oson\src\main\java\fr\lyneteam\nico\oson\JsonElement.java
A:\projets\Public\oson\src\main\java\fr\lyneteam\nico\oson\Since.java
A:\projets\Public\oson\src\main\java\fr\lyneteam\nico\oson\GsonPreconditions.java
A:\projets\Public\oson\src\main\java\fr\lyneteam\nico\oson\InstanceCreator.java
A:\projets\Public\oson\src\main\java\fr\lyneteam\nico\oson\TypeToken.java
A:\projets\Public\oson\src\main\java\fr\lyneteam\nico\oson\MalformedJsonException.java
A:\projets\Public\oson\src\main\java\fr\lyneteam\nico\oson\Oson.java
A:\projets\Public\oson\src\main\java\fr\lyneteam\nico\oson\ExclusionStrategy.java
A:\projets\Public\oson\src\main\java\fr\lyneteam\nico\oson\JsonObject.java
A:\projets\Public\oson\src\main\java\fr\lyneteam\nico\oson\JsonArray.java
A:\projets\Public\oson\src\main\java\fr\lyneteam\nico\oson\JsonToken.java
A:\projets\Public\oson\src\main\java\fr\lyneteam\nico\oson\DefaultDateTypeAdapter.java
A:\projets\Public\oson\src\main\java\fr\lyneteam\nico\oson\FieldNamingStrategy.java
A:\projets\Public\oson\src\main\java\fr\lyneteam\nico\oson\TimeTypeAdapter.java
A:\projets\Public\oson\src\main\java\fr\lyneteam\nico\oson\Excluder.java
A:\projets\Public\oson\src\main\java\fr\lyneteam\nico\oson\JsonNull.java
A:\projets\Public\oson\src\main\java\fr\lyneteam\nico\oson\JsonParser.java
A:\projets\Public\oson\src\main\java\fr\lyneteam\nico\oson\GsonBuilder.java
A:\projets\Public\oson\src\main\java\fr\lyneteam\nico\oson\JsonSerializer.java
A:\projets\Public\oson\src\main\java\fr\lyneteam\nico\oson\package-info.java
A:\projets\Public\oson\src\main\java\fr\lyneteam\nico\oson\ObjectTypeAdapter.java
A:\projets\Public\oson\src\main\java\fr\lyneteam\nico\oson\JsonReaderInternalAccess.java
A:\projets\Public\oson\src\main\java\fr\lyneteam\nico\oson\JsonScope.java
A:\projets\Public\oson\src\main\java\fr\lyneteam\nico\oson\Gson.java
A:\projets\Public\oson\src\main\java\fr\lyneteam\nico\oson\ArrayTypeAdapter.java
A:\projets\Public\oson\src\main\java\fr\lyneteam\nico\oson\JsonSyntaxException.java
A:\projets\Public\oson\src\main\java\fr\lyneteam\nico\oson\JsonTreeReader.java
A:\projets\Public\oson\src\main\java\fr\lyneteam\nico\oson\OsonObject.java
A:\projets\Public\oson\src\main\java\fr\lyneteam\nico\oson\CollectionTypeAdapterFactory.java
A:\projets\Public\oson\src\main\java\fr\lyneteam\nico\oson\GsonTypes.java
A:\projets\Public\oson\src\main\java\fr\lyneteam\nico\oson\MapTypeAdapterFactory.java
A:\projets\Public\oson\src\main\java\fr\lyneteam\nico\oson\Streams.java
A:\projets\Public\oson\src\main\java\fr\lyneteam\nico\oson\DateTypeAdapter.java
A:\projets\Public\oson\src\main\java\fr\lyneteam\nico\oson\JsonPrimitive.java
A:\projets\Public\oson\src\main\java\fr\lyneteam\nico\oson\ConstructorConstructor.java
A:\projets\Public\oson\src\main\java\fr\lyneteam\nico\oson\JsonSerializationContext.java
A:\projets\Public\oson\src\main\java\fr\lyneteam\nico\oson\JsonDeserializationContext.java
A:\projets\Public\oson\src\main\java\fr\lyneteam\nico\oson\JsonReader.java
A:\projets\Public\oson\src\main\java\fr\lyneteam\nico\oson\ObjectConstructor.java
A:\projets\Public\oson\src\main\java\fr\lyneteam\nico\oson\ReflectiveTypeAdapterFactory.java
A:\projets\Public\oson\src\main\java\fr\lyneteam\nico\oson\TypeAdapterRuntimeTypeWrapper.java
A:\projets\Public\oson\src\main\java\fr\lyneteam\nico\oson\TreeTypeAdapter.java
A:\projets\Public\oson\src\main\java\fr\lyneteam\nico\oson\SqlDateTypeAdapter.java
A:\projets\Public\oson\src\main\java\fr\lyneteam\nico\oson\LinkedTreeMap.java
A:\projets\Public\oson\src\main\java\fr\lyneteam\nico\oson\LongSerializationPolicy.java
A:\projets\Public\oson\src\main\java\fr\lyneteam\nico\oson\FieldNamingPolicy.java
A:\projets\Public\oson\src\main\java\fr\lyneteam\nico\oson\TypeAdapter.java
A:\projets\Public\oson\src\main\java\fr\lyneteam\nico\oson\FieldAttributes.java
A:\projets\Public\oson\src\main\java\fr\lyneteam\nico\oson\JsonDeserializer.java
A:\projets\Public\oson\src\main\java\fr\lyneteam\nico\oson\LazilyParsedNumber.java
A:\projets\Public\oson\src\main\java\fr\lyneteam\nico\oson\Primitives.java
A:\projets\Public\oson\src\main\java\fr\lyneteam\nico\oson\UnsafeAllocator.java
A:\projets\Public\oson\src\main\java\fr\lyneteam\nico\oson\JsonParseException.java
A:\projets\Public\oson\src\main\java\fr\lyneteam\nico\oson\Until.java
A:\projets\Public\oson\src\main\java\fr\lyneteam\nico\oson\JsonWriter.java
A:\projets\Public\oson\src\main\java\fr\lyneteam\nico\oson\OsonClassManager.java
A:\projets\Public\oson\src\main\java\fr\lyneteam\nico\oson\Expose.java
A:\projets\Public\oson\src\main\java\fr\lyneteam\nico\oson\JsonStreamParser.java
A:\projets\Public\oson\src\main\java\fr\lyneteam\nico\oson\TypeAdapterFactory.java
A:\projets\Public\oson\src\main\java\fr\lyneteam\nico\oson\TypeAdapters.java
A:\projets\Public\oson\src\main\java\fr\lyneteam\nico\oson\SerializedName.java
A:\projets\Public\oson\src\main\java\fr\lyneteam\nico\oson\JsonTreeWriter.java
